simulation/qsim/Relogio.msim.vcd
$comment
	File created using the following command:
		vcd file Relogio.msim.vcd -direction
$end
$date
	Wed May 30 12:45:05 2018
$end
$version
	ModelSim Version 10.1d
$end
$timescale
	1ps
$end
$scope module Relogio_vlg_vec_tst $end
$var reg 1 ! clock_in $end
$var wire 1 " numero [6] $end
$var wire 1 # numero [5] $end
$var wire 1 $ numero [4] $end
$var wire 1 % numero [3] $end
$var wire 1 & numero [2] $end
$var wire 1 ' numero [1] $end
$var wire 1 ( numero [0] $end
$var wire 1 ) sampler $end
$scope module i1 $end
$var wire 1 * gnd $end
$var wire 1 + vcc $end
$var wire 1 , unknown $end
$var tri1 1 - devclrn $end
$var tri1 1 . devpor $end
$var tri1 1 / devoe $end
$var wire 1 0 i[2]~32_combout $end
$var wire 1 1 i[5]~38_combout $end
$var wire 1 2 i[16]~60_combout $end
$var wire 1 3 i[21]~70_combout $end
$var wire 1 4 i[24]~77 $end
$var wire 1 5 i[25]~78_combout $end
$var wire 1 6 LessThan2~3_combout $end
$var wire 1 7 clock_in~combout $end
$var wire 1 8 clock_in~clkctrl_outclk $end
$var wire 1 9 Add0~0_combout $end
$var wire 1 : i[0]~29 $end
$var wire 1 ; i[1]~30_combout $end
$var wire 1 < i[23]~74_combout $end
$var wire 1 = i[19]~66_combout $end
$var wire 1 > LessThan2~5_combout $end
$var wire 1 ? LessThan2~6_combout $end
$var wire 1 @ i[18]~64_combout $end
$var wire 1 A LessThan2~2_combout $end
$var wire 1 B i[7]~42_combout $end
$var wire 1 C LessThan2~0_combout $end
$var wire 1 D i[9]~46_combout $end
$var wire 1 E i[11]~50_combout $end
$var wire 1 F LessThan2~1_combout $end
$var wire 1 G LessThan2~4_combout $end
$var wire 1 H i[8]~80_combout $end
$var wire 1 I i[1]~31 $end
$var wire 1 J i[2]~33 $end
$var wire 1 K i[3]~35 $end
$var wire 1 L i[4]~36_combout $end
$var wire 1 M i[4]~37 $end
$var wire 1 N i[5]~39 $end
$var wire 1 O i[6]~40_combout $end
$var wire 1 P i[6]~41 $end
$var wire 1 Q i[7]~43 $end
$var wire 1 R i[8]~44_combout $end
$var wire 1 S i[8]~45 $end
$var wire 1 T i[9]~47 $end
$var wire 1 U i[10]~48_combout $end
$var wire 1 V i[10]~49 $end
$var wire 1 W i[11]~51 $end
$var wire 1 X i[12]~52_combout $end
$var wire 1 Y i[12]~53 $end
$var wire 1 Z i[13]~54_combout $end
$var wire 1 [ i[13]~55 $end
$var wire 1 \ i[14]~56_combout $end
$var wire 1 ] i[14]~57 $end
$var wire 1 ^ i[15]~58_combout $end
$var wire 1 _ i[15]~59 $end
$var wire 1 ` i[16]~61 $end
$var wire 1 a i[17]~62_combout $end
$var wire 1 b i[17]~63 $end
$var wire 1 c i[18]~65 $end
$var wire 1 d i[19]~67 $end
$var wire 1 e i[20]~68_combout $end
$var wire 1 f i[20]~69 $end
$var wire 1 g i[21]~71 $end
$var wire 1 h i[22]~72_combout $end
$var wire 1 i i[22]~73 $end
$var wire 1 j i[23]~75 $end
$var wire 1 k i[24]~76_combout $end
$var wire 1 l Equal0~3_combout $end
$var wire 1 m Equal0~4_combout $end
$var wire 1 n Equal0~5_combout $end
$var wire 1 o Equal0~1_combout $end
$var wire 1 p i[0]~28_combout $end
$var wire 1 q i[3]~34_combout $end
$var wire 1 r Equal0~0_combout $end
$var wire 1 s Equal0~2_combout $end
$var wire 1 t numero_aux[3]~0_combout $end
$var wire 1 u numero_aux[2]~3_combout $end
$var wire 1 v LessThan0~0_combout $end
$var wire 1 w numero_aux[0]~1_combout $end
$var wire 1 x numero_aux[1]~2_combout $end
$var wire 1 y Add0~1_combout $end
$var wire 1 z numero_aux[3]~4_combout $end
$var wire 1 { Mux5~0_combout $end
$var wire 1 | estado[0]~0_combout $end
$var wire 1 } Mux4~0_combout $end
$var wire 1 ~ Mux3~0_combout $end
$var wire 1 !! Mux2~0_combout $end
$var wire 1 "! Mux1~0_combout $end
$var wire 1 #! Mux0~0_combout $end
$var wire 1 $! numero_aux [3] $end
$var wire 1 %! numero_aux [2] $end
$var wire 1 &! numero_aux [1] $end
$var wire 1 '! numero_aux [0] $end
$var wire 1 (! i [25] $end
$var wire 1 )! i [24] $end
$var wire 1 *! i [23] $end
$var wire 1 +! i [22] $end
$var wire 1 ,! i [21] $end
$var wire 1 -! i [20] $end
$var wire 1 .! i [19] $end
$var wire 1 /! i [18] $end
$var wire 1 0! i [17] $end
$var wire 1 1! i [16] $end
$var wire 1 2! i [15] $end
$var wire 1 3! i [14] $end
$var wire 1 4! i [13] $end
$var wire 1 5! i [12] $end
$var wire 1 6! i [11] $end
$var wire 1 7! i [10] $end
$var wire 1 8! i [9] $end
$var wire 1 9! i [8] $end
$var wire 1 :! i [7] $end
$var wire 1 ;! i [6] $end
$var wire 1 <! i [5] $end
$var wire 1 =! i [4] $end
$var wire 1 >! i [3] $end
$var wire 1 ?! i [2] $end
$var wire 1 @! i [1] $end
$var wire 1 A! i [0] $end
$var wire 1 B! estado [6] $end
$var wire 1 C! estado [5] $end
$var wire 1 D! estado [4] $end
$var wire 1 E! estado [3] $end
$var wire 1 F! estado [2] $end
$var wire 1 G! estado [1] $end
$var wire 1 H! estado [0] $end
$upscope $end
$upscope $end
$enddefinitions $end
#0
$dumpvars
0!
0(
0'
0&
0%
0$
0#
0"
x)
0*
1+
x,
1-
1.
1/
00
01
02
03
04
05
16
07
08
09
0:
0;
0<
0=
1>
1?
0@
1A
0B
1C
0D
0E
1F
1G
0H
1I
0J
1K
0L
0M
1N
0O
0P
1Q
0R
0S
1T
0U
0V
1W
0X
0Y
0Z
1[
0\
0]
0^
1_
0`
0a
1b
0c
1d
0e
0f
1g
0h
0i
1j
0k
1l
1m
1n
1o
1p
0q
1r
1s
0t
0u
1v
1w
0x
0y
0z
0{
1|
0}
0~
0!!
0"!
1#!
0'!
0&!
0%!
0$!
0A!
0@!
0?!
0>!
0=!
0<!
0;!
0:!
09!
08!
07!
06!
05!
04!
03!
02!
01!
00!
0/!
0.!
0-!
0,!
0+!
0*!
0)!
0(!
0H!
0G!
zF!
0E!
0D!
0C!
0B!
$end
#500
1!
17
18
0)
1B!
1'!
1A!
1"!
1!!
1~
1{
1x
0w
0r
1:
0p
1"
0s
1;
0|
1t
0x
1w
#1000
0!
07
08
1)
#1500
1!
17
18
0)
0A!
1@!
0:
1p
0I
0;
1I
1;
10
00
#2000
0!
07
08
1)
#2500
1!
17
18
0)
1A!
1:
0p
0I
0;
10
#3000
0!
07
08
1)
#3500
1!
17
18
0)
0A!
0@!
1?!
0:
1p
1I
1;
1J
00
0;
0J
10
1q
0q
#4000
0!
07
08
1)
#4500
1!
17
18
0)
1A!
1:
0p
1;
#5000
0!
07
08
1)
#5500
1!
17
18
0)
0A!
1@!
0:
1p
0I
0;
1I
1;
1J
00
0J
10
1q
0q
#6000
0!
07
08
1)
#6500
1!
17
18
0)
1A!
1:
0p
0I
0;
1J
00
1q
#7000
0!
07
08
1)
#7500
1!
17
18
0)
1>!
0A!
0@!
0?!
0K
0q
0:
1p
1I
1;
0J
10
1L
0;
00
1K
1q
0L
#8000
0!
07
08
1)
#8500
1!
17
18
0)
1A!
1:
0p
1;
#9000
0!
07
08
1)
#9500
1!
17
18
0)
0A!
1@!
0:
1p
0I
0;
1I
1;
10
00
#10000
0!
07
08
1)
#10500
1!
17
18
0)
1A!
1:
0p
0I
0;
10
#11000
0!
07
08
1)
#11500
1!
17
18
0)
0A!
0@!
1?!
0:
1p
1I
1;
1J
00
0;
0J
10
0K
0q
1K
1q
1L
0L
#12000
0!
07
08
1)
#12500
1!
17
18
0)
1A!
1:
0p
1;
#13000
0!
07
08
1)
#13500
1!
17
18
0)
0A!
1@!
0:
1p
0I
0;
1I
1;
1J
00
0J
10
0K
0q
1K
1q
1L
0L
#14000
0!
07
08
1)
#14500
1!
17
18
0)
1A!
1:
0p
0I
0;
1J
00
0K
0q
1L
#15000
0!
07
08
1)
#15500
1!
17
18
0)
0>!
0A!
1=!
0@!
0?!
1r
1K
1q
0:
1p
0o
1M
0L
1I
1;
0J
10
0M
1L
0;
11
00
0q
01
#16000
0!
07
08
1)
#16500
1!
17
18
0)
1A!
0r
1:
0p
1;
#17000
0!
07
08
1)
#17500
1!
17
18
0)
0A!
1@!
0:
1p
0I
0;
1I
1;
10
00
#18000
0!
07
08
1)
#18500
1!
17
18
0)
1A!
1:
0p
0I
0;
10
#19000
0!
07
08
1)
#19500
1!
17
18
0)
0A!
0@!
1?!
0:
1p
1I
1;
1J
00
0;
0J
10
1q
0q
#20000
0!
07
08
1)
#20500
1!
17
18
0)
1A!
1:
0p
1;
#21000
0!
07
08
1)
#21500
1!
17
18
0)
0A!
1@!
0:
1p
0I
0;
1I
1;
1J
00
0J
10
1q
0q
#22000
0!
07
08
1)
#22500
1!
17
18
0)
1A!
1:
0p
0I
0;
1J
00
1q
#23000
0!
07
08
1)
#23500
1!
17
18
0)
1>!
0A!
0@!
0?!
0K
0q
0:
1p
1I
1;
0J
10
1M
0L
0;
00
1K
1q
11
0M
1L
01
#24000
0!
07
08
1)
#24500
1!
17
18
0)
1A!
1:
0p
1;
#25000
0!
07
08
1)
#25500
1!
17
18
0)
0A!
1@!
0:
1p
0I
0;
1I
1;
10
00
#26000
0!
07
08
1)
#26500
1!
17
18
0)
1A!
1:
0p
0I
0;
10
#27000
0!
07
08
1)
#27500
1!
17
18
0)
0A!
0@!
1?!
0:
1p
1I
1;
1J
00
0;
0J
10
0K
0q
1K
1q
1M
0L
0M
1L
11
01
#28000
0!
07
08
1)
#28500
1!
17
18
0)
1A!
1:
0p
1;
#29000
0!
07
08
1)
#29500
1!
17
18
0)
0A!
1@!
0:
1p
0I
0;
1I
1;
1J
00
0J
10
0K
0q
1K
1q
1M
0L
0M
1L
11
01
#30000
0!
07
08
1)
#30500
1!
17
18
0)
1A!
1:
0p
0I
0;
1J
00
0K
0q
1M
0L
11
#31000
0!
07
08
1)
#31500
1!
17
18
0)
0>!
0A!
0=!
0@!
1<!
0?!
1r
1K
1q
0:
1p
0M
1L
1I
1;
0N
01
0J
10
0L
0;
1N
11
00
1O
0q
0O
#32000
0!
07
08
1)
#32500
1!
17
18
0)
1A!
0r
1:
0p
1;
#33000
0!
07
08
1)
#33500
1!
17
18
0)
0A!
1@!
0:
1p
0I
0;
1I
1;
10
00
#34000
0!
07
08
1)
#34500
1!
17
18
0)
1A!
1:
0p
0I
0;
10
#35000
0!
07
08
1)
#35500
1!
17
18
0)
0A!
0@!
1?!
0:
1p
1I
1;
1J
00
0;
0J
10
1q
0q
#36000
0!
07
08
1)
#36500
1!
17
18
0)
1A!
1:
0p
1;
#37000
0!
07
08
1)
#37500
1!
17
18
0)
0A!
1@!
0:
1p
0I
0;
1I
1;
1J
00
0J
10
1q
0q
#38000
0!
07
08
1)
#38500
1!
17
18
0)
1A!
1:
0p
0I
0;
1J
00
1q
#39000
0!
07
08
1)
#39500
1!
17
18
0)
1>!
0A!
0@!
0?!
0K
0q
0:
1p
1I
1;
0J
10
1L
0;
00
1K
1q
0L
#40000
0!
07
08
1)
#40500
1!
17
18
0)
1A!
1:
0p
1;
#41000
0!
07
08
1)
#41500
1!
17
18
0)
0A!
1@!
0:
1p
0I
0;
1I
1;
10
00
#42000
0!
07
08
1)
#42500
1!
17
18
0)
1A!
1:
0p
0I
0;
10
#43000
0!
07
08
1)
#43500
1!
17
18
0)
0A!
0@!
1?!
0:
1p
1I
1;
1J
00
0;
0J
10
0K
0q
1K
1q
1L
0L
#44000
0!
07
08
1)
#44500
1!
17
18
0)
1A!
1:
0p
1;
#45000
0!
07
08
1)
#45500
1!
17
18
0)
0A!
1@!
0:
1p
0I
0;
1I
1;
1J
00
0J
10
0K
0q
1K
1q
1L
0L
#46000
0!
07
08
1)
#46500
1!
17
18
0)
1A!
1:
0p
0I
0;
1J
00
0K
0q
1L
#47000
0!
07
08
1)
#47500
1!
17
18
0)
0>!
0A!
1=!
0@!
0?!
1r
1K
1q
0:
1p
1M
0L
1I
1;
0J
10
0M
1L
0;
0N
01
00
0q
1N
11
1O
0O
#48000
0!
07
08
1)
#48500
1!
17
18
0)
1A!
0r
1:
0p
1;
#49000
0!
07
08
1)
#49500
1!
17
18
0)
0A!
1@!
0:
1p
0I
0;
1I
1;
10
00
#50000
0!
07
08
1)
#50500
1!
17
18
0)
1A!
1:
0p
0I
0;
10
#51000
0!
07
08
1)
#51500
1!
17
18
0)
0A!
0@!
1?!
0:
1p
1I
1;
1J
00
0;
0J
10
1q
0q
#52000
0!
07
08
1)
#52500
1!
17
18
0)
1A!
1:
0p
1;
#53000
0!
07
08
1)
#53500
1!
17
18
0)
0A!
1@!
0:
1p
0I
0;
1I
1;
1J
00
0J
10
1q
0q
#54000
0!
07
08
1)
#54500
1!
17
18
0)
1A!
1:
0p
0I
0;
1J
00
1q
#55000
0!
07
08
1)
#55500
1!
17
18
0)
1>!
0A!
0@!
0?!
0K
0q
0:
1p
1I
1;
0J
10
1M
0L
0;
00
1K
1q
0N
01
0M
1L
1O
1N
11
0O
#56000
0!
07
08
1)
#56500
1!
17
18
0)
1A!
1:
0p
1;
#57000
0!
07
08
1)
#57500
1!
17
18
0)
0A!
1@!
0:
1p
0I
0;
1I
1;
10
00
#58000
0!
07
08
1)
#58500
1!
17
18
0)
1A!
1:
0p
0I
0;
10
#59000
0!
07
08
1)
#59500
1!
17
18
0)
0A!
0@!
1?!
0:
1p
1I
1;
1J
00
0;
0J
10
0K
0q
1K
1q
1M
0L
0M
1L
0N
01
1N
11
1O
0O
#60000
0!
07
08
1)
#60500
1!
17
18
0)
1A!
1:
0p
1;
#61000
0!
07
08
1)
#61500
1!
17
18
0)
0A!
1@!
0:
1p
0I
0;
1I
1;
1J
00
0J
10
0K
0q
1K
1q
1M
0L
0M
1L
0N
01
1N
11
1O
0O
#62000
0!
07
08
1)
#62500
1!
17
18
0)
1A!
1:
0p
0I
0;
1J
00
0K
0q
1M
0L
0N
01
1O
#63000
0!
07
08
1)
#63500
1!
17
18
0)
0>!
0A!
1;!
0=!
0@!
0<!
0?!
1r
1K
1q
0:
1p
1P
0O
0M
1L
1I
1;
1N
11
0J
10
0L
0;
1B
01
00
0P
1O
0q
0B
#64000
0!
07
08
1)
#64500
1!
17
18
0)
1A!
0r
1:
0p
1;
#65000
0!
07
08
1)
#65500
1!
17
18
0)
0A!
1@!
0:
1p
0I
0;
1I
1;
10
00
#66000
0!
07
08
1)
#66500
1!
17
18
0)
1A!
1:
0p
0I
0;
10
#67000
0!
07
08
1)
#67500
1!
17
18
0)
0A!
0@!
1?!
0:
1p
1I
1;
1J
00
0;
0J
10
1q
0q
#68000
0!
07
08
1)
#68500
1!
17
18
0)
1A!
1:
0p
1;
#69000
0!
07
08
1)
#69500
1!
17
18
0)
0A!
1@!
0:
1p
0I
0;
1I
1;
1J
00
0J
10
1q
0q
#70000
0!
07
08
1)
#70500
1!
17
18
0)
1A!
1:
0p
0I
0;
1J
00
1q
#71000
0!
07
08
1)
#71500
1!
17
18
0)
1>!
0A!
0@!
0?!
0K
0q
0:
1p
1I
1;
0J
10
1L
0;
00
1K
1q
0L
#72000
0!
07
08
1)
#72500
1!
17
18
0)
1A!
1:
0p
1;
#73000
0!
07
08
1)
#73500
1!
17
18
0)
0A!
1@!
0:
1p
0I
0;
1I
1;
10
00
#74000
0!
07
08
1)
#74500
1!
17
18
0)
1A!
1:
0p
0I
0;
10
#75000
0!
07
08
1)
#75500
1!
17
18
0)
0A!
0@!
1?!
0:
1p
1I
1;
1J
00
0;
0J
10
0K
0q
1K
1q
1L
0L
#76000
0!
07
08
1)
#76500
1!
17
18
0)
1A!
1:
0p
1;
#77000
0!
07
08
1)
#77500
1!
17
18
0)
0A!
1@!
0:
1p
0I
0;
1I
1;
1J
00
0J
10
0K
0q
1K
1q
1L
0L
#78000
0!
07
08
1)
#78500
1!
17
18
0)
1A!
1:
0p
0I
0;
1J
00
0K
0q
1L
#79000
0!
07
08
1)
#79500
1!
17
18
0)
0>!
0A!
1=!
0@!
0?!
1r
1K
1q
0:
1p
1M
0L
1I
1;
0J
10
0M
1L
0;
11
00
0q
01
#80000
0!
07
08
1)
#80500
1!
17
18
0)
1A!
0r
1:
0p
1;
#81000
0!
07
08
1)
#81500
1!
17
18
0)
0A!
1@!
0:
1p
0I
0;
1I
1;
10
00
#82000
0!
07
08
1)
#82500
1!
17
18
0)
1A!
1:
0p
0I
0;
10
#83000
0!
07
08
1)
#83500
1!
17
18
0)
0A!
0@!
1?!
0:
1p
1I
1;
1J
00
0;
0J
10
1q
0q
#84000
0!
07
08
1)
#84500
1!
17
18
0)
1A!
1:
0p
1;
#85000
0!
07
08
1)
#85500
1!
17
18
0)
0A!
1@!
0:
1p
0I
0;
1I
1;
1J
00
0J
10
1q
0q
#86000
0!
07
08
1)
#86500
1!
17
18
0)
1A!
1:
0p
0I
0;
1J
00
1q
#87000
0!
07
08
1)
#87500
1!
17
18
0)
1>!
0A!
0@!
0?!
0K
0q
0:
1p
1I
1;
0J
10
1M
0L
0;
00
1K
1q
11
0M
1L
01
#88000
0!
07
08
1)
#88500
1!
17
18
0)
1A!
1:
0p
1;
#89000
0!
07
08
1)
#89500
1!
17
18
0)
0A!
1@!
0:
1p
0I
0;
1I
1;
10
00
#90000
0!
07
08
1)
#90500
1!
17
18
0)
1A!
1:
0p
0I
0;
10
#91000
0!
07
08
1)
#91500
1!
17
18
0)
0A!
0@!
1?!
0:
1p
1I
1;
1J
00
0;
0J
10
0K
0q
1K
1q
1M
0L
0M
1L
11
01
#92000
0!
07
08
1)
#92500
1!
17
18
0)
1A!
1:
0p
1;
#93000
0!
07
08
1)
#93500
1!
17
18
0)
0A!
1@!
0:
1p
0I
0;
1I
1;
1J
00
0J
10
0K
0q
1K
1q
1M
0L
0M
1L
11
01
#94000
0!
07
08
1)
#94500
1!
17
18
0)
1A!
1:
0p
0I
0;
1J
00
0K
0q
1M
0L
11
#95000
0!
07
08
1)
#95500
1!
17
18
0)
0>!
0A!
0=!
0@!
1<!
0?!
1r
1K
1q
0:
1p
0M
1L
1I
1;
0N
01
0J
10
0L
0;
1N
11
00
1P
0O
0q
0P
1O
1B
0B
#96000
0!
07
08
1)
#96500
1!
17
18
0)
1A!
0r
1:
0p
1;
#97000
0!
07
08
1)
#97500
1!
17
18
0)
0A!
1@!
0:
1p
0I
0;
1I
1;
10
00
#98000
0!
07
08
1)
#98500
1!
17
18
0)
1A!
1:
0p
0I
0;
10
#99000
0!
07
08
1)
#99500
1!
17
18
0)
0A!
0@!
1?!
0:
1p
1I
1;
1J
00
0;
0J
10
1q
0q
#100000
0!
07
08
1)
#100500
1!
17
18
0)
1A!
1:
0p
1;
#101000
0!
07
08
1)
#101500
1!
17
18
0)
0A!
1@!
0:
1p
0I
0;
1I
1;
1J
00
0J
10
1q
0q
#102000
0!
07
08
1)
#102500
1!
17
18
0)
1A!
1:
0p
0I
0;
1J
00
1q
#103000
0!
07
08
1)
#103500
1!
17
18
0)
1>!
0A!
0@!
0?!
0K
0q
0:
1p
1I
1;
0J
10
1L
0;
00
1K
1q
0L
#104000
0!
07
08
1)
#104500
1!
17
18
0)
1A!
1:
0p
1;
#105000
0!
07
08
1)
#105500
1!
17
18
0)
0A!
1@!
0:
1p
0I
0;
1I
1;
10
00
#106000
0!
07
08
1)
#106500
1!
17
18
0)
1A!
1:
0p
0I
0;
10
#107000
0!
07
08
1)
#107500
1!
17
18
0)
0A!
0@!
1?!
0:
1p
1I
1;
1J
00
0;
0J
10
0K
0q
1K
1q
1L
0L
#108000
0!
07
08
1)
#108500
1!
17
18
0)
1A!
1:
0p
1;
#109000
0!
07
08
1)
#109500
1!
17
18
0)
0A!
1@!
0:
1p
0I
0;
1I
1;
1J
00
0J
10
0K
0q
1K
1q
1L
0L
#110000
0!
07
08
1)
#110500
1!
17
18
0)
1A!
1:
0p
0I
0;
1J
00
0K
0q
1L
#111000
0!
07
08
1)
#111500
1!
17
18
0)
0>!
0A!
1=!
0@!
0?!
1r
1K
1q
0:
1p
1M
0L
1I
1;
0J
10
0M
1L
0;
0N
01
00
0q
1N
11
1P
0O
0P
1O
1B
0B
#112000
0!
07
08
1)
#112500
1!
17
18
0)
1A!
0r
1:
0p
1;
#113000
0!
07
08
1)
#113500
1!
17
18
0)
0A!
1@!
0:
1p
0I
0;
1I
1;
10
00
#114000
0!
07
08
1)
#114500
1!
17
18
0)
1A!
1:
0p
0I
0;
10
#115000
0!
07
08
1)
#115500
1!
17
18
0)
0A!
0@!
1?!
0:
1p
1I
1;
1J
00
0;
0J
10
1q
0q
#116000
0!
07
08
1)
#116500
1!
17
18
0)
1A!
1:
0p
1;
#117000
0!
07
08
1)
#117500
1!
17
18
0)
0A!
1@!
0:
1p
0I
0;
1I
1;
1J
00
0J
10
1q
0q
#118000
0!
07
08
1)
#118500
1!
17
18
0)
1A!
1:
0p
0I
0;
1J
00
1q
#119000
0!
07
08
1)
#119500
1!
17
18
0)
1>!
0A!
0@!
0?!
0K
0q
0:
1p
1I
1;
0J
10
1M
0L
0;
00
1K
1q
0N
01
0M
1L
1P
0O
1N
11
1B
0P
1O
0B
#120000
0!
07
08
1)
#120500
1!
17
18
0)
1A!
1:
0p
1;
#121000
0!
07
08
1)
#121500
1!
17
18
0)
0A!
1@!
0:
1p
0I
0;
1I
1;
10
00
#122000
0!
07
08
1)
#122500
1!
17
18
0)
1A!
1:
0p
0I
0;
10
#123000
0!
07
08
1)
#123500
1!
17
18
0)
0A!
0@!
1?!
0:
1p
1I
1;
1J
00
0;
0J
10
0K
0q
1K
1q
1M
0L
0M
1L
0N
01
1N
11
1P
0O
0P
1O
1B
0B
#124000
0!
07
08
1)
#124500
1!
17
18
0)
1A!
1:
0p
1;
#125000
0!
07
08
1)
#125500
1!
17
18
0)
0A!
1@!
0:
1p
0I
0;
1I
1;
1J
00
0J
10
0K
0q
1K
1q
1M
0L
0M
1L
0N
01
1N
11
1P
0O
0P
1O
1B
0B
#126000
0!
07
08
1)
#126500
1!
17
18
0)
1A!
1:
0p
0I
0;
1J
00
0K
0q
1M
0L
0N
01
1P
0O
1B
#127000
0!
07
08
1)
#127500
1!
17
18
0)
0>!
0A!
0;!
0=!
0@!
1:!
0<!
0?!
1r
1K
1q
0:
1p
1o
0P
1O
0M
1L
1I
1;
0C
0Q
0B
1N
11
0J
10
0L
0;
1Q
1B
01
00
1R
0O
0q
0R
#128000
0!
07
08
1)
#128500
1!
17
18
0)
1A!
0r
1:
0p
1;
#129000
0!
07
08
1)
#129500
1!
17
18
0)
0A!
1@!
0:
1p
0I
0;
1I
1;
10
00
#130000
0!
07
08
1)
#130500
1!
17
18
0)
1A!
1:
0p
0I
0;
10
#131000
0!
07
08
1)
#131500
1!
17
18
0)
0A!
0@!
1?!
0:
1p
1I
1;
1J
00
0;
0J
10
1q
0q
#132000
0!
07
08
1)
#132500
1!
17
18
0)
1A!
1:
0p
1;
#133000
0!
07
08
1)
#133500
1!
17
18
0)
0A!
1@!
0:
1p
0I
0;
1I
1;
1J
00
0J
10
1q
0q
#134000
0!
07
08
1)
#134500
1!
17
18
0)
1A!
1:
0p
0I
0;
1J
00
1q
#135000
0!
07
08
1)
#135500
1!
17
18
0)
1>!
0A!
0@!
0?!
0K
0q
0:
1p
1I
1;
0J
10
1L
0;
00
1K
1q
0L
#136000
0!
07
08
1)
#136500
1!
17
18
0)
1A!
1:
0p
1;
#137000
0!
07
08
1)
#137500
1!
17
18
0)
0A!
1@!
0:
1p
0I
0;
1I
1;
10
00
#138000
0!
07
08
1)
#138500
1!
17
18
0)
1A!
1:
0p
0I
0;
10
#139000
0!
07
08
1)
#139500
1!
17
18
0)
0A!
0@!
1?!
0:
1p
1I
1;
1J
00
0;
0J
10
0K
0q
1K
1q
1L
0L
#140000
0!
07
08
1)
#140500
1!
17
18
0)
1A!
1:
0p
1;
#141000
0!
07
08
1)
#141500
1!
17
18
0)
0A!
1@!
0:
1p
0I
0;
1I
1;
1J
00
0J
10
0K
0q
1K
1q
1L
0L
#142000
0!
07
08
1)
#142500
1!
17
18
0)
1A!
1:
0p
0I
0;
1J
00
0K
0q
1L
#143000
0!
07
08
1)
#143500
1!
17
18
0)
0>!
0A!
1=!
0@!
0?!
1r
1K
1q
0:
1p
0o
1M
0L
1I
1;
0J
10
0M
1L
0;
11
00
0q
01
#144000
0!
07
08
1)
#144500
1!
17
18
0)
1A!
0r
1:
0p
1;
#145000
0!
07
08
1)
#145500
1!
17
18
0)
0A!
1@!
0:
1p
0I
0;
1I
1;
10
00
#146000
0!
07
08
1)
#146500
1!
17
18
0)
1A!
1:
0p
0I
0;
10
#147000
0!
07
08
1)
#147500
1!
17
18
0)
0A!
0@!
1?!
0:
1p
1I
1;
1J
00
0;
0J
10
1q
0q
#148000
0!
07
08
1)
#148500
1!
17
18
0)
1A!
1:
0p
1;
#149000
0!
07
08
1)
#149500
1!
17
18
0)
0A!
1@!
0:
1p
0I
0;
1I
1;
1J
00
0J
10
1q
0q
#150000
0!
07
08
1)
#150500
1!
17
18
0)
1A!
1:
0p
0I
0;
1J
00
1q
#151000
0!
07
08
1)
#151500
1!
17
18
0)
1>!
0A!
0@!
0?!
0K
0q
0:
1p
1I
1;
0J
10
1M
0L
0;
00
1K
1q
11
0M
1L
01
#152000
0!
07
08
1)
#152500
1!
17
18
0)
1A!
1:
0p
1;
#153000
0!
07
08
1)
#153500
1!
17
18
0)
0A!
1@!
0:
1p
0I
0;
1I
1;
10
00
#154000
0!
07
08
1)
#154500
1!
17
18
0)
1A!
1:
0p
0I
0;
10
#155000
0!
07
08
1)
#155500
1!
17
18
0)
0A!
0@!
1?!
0:
1p
1I
1;
1J
00
0;
0J
10
0K
0q
1K
1q
1M
0L
0M
1L
11
01
#156000
0!
07
08
1)
#156500
1!
17
18
0)
1A!
1:
0p
1;
#157000
0!
07
08
1)
#157500
1!
17
18
0)
0A!
1@!
0:
1p
0I
0;
1I
1;
1J
00
0J
10
0K
0q
1K
1q
1M
0L
0M
1L
11
01
#158000
0!
07
08
1)
#158500
1!
17
18
0)
1A!
1:
0p
0I
0;
1J
00
0K
0q
1M
0L
11
#159000
0!
07
08
1)
#159500
1!
17
18
0)
0>!
0A!
0=!
0@!
1<!
0?!
1r
1K
1q
0:
1p
0M
1L
1I
1;
0N
01
0J
10
0L
0;
1N
11
00
1O
0q
0O
#160000
0!
07
08
1)
#160500
1!
17
18
0)
1A!
0r
1:
0p
1;
#161000
0!
07
08
1)
#161500
1!
17
18
0)
0A!
1@!
0:
1p
0I
0;
1I
1;
10
00
#162000
0!
07
08
1)
#162500
1!
17
18
0)
1A!
1:
0p
0I
0;
10
#163000
0!
07
08
1)
#163500
1!
17
18
0)
0A!
0@!
1?!
0:
1p
1I
1;
1J
00
0;
0J
10
1q
0q
#164000
0!
07
08
1)
#164500
1!
17
18
0)
1A!
1:
0p
1;
#165000
0!
07
08
1)
#165500
1!
17
18
0)
0A!
1@!
0:
1p
0I
0;
1I
1;
1J
00
0J
10
1q
0q
#166000
0!
07
08
1)
#166500
1!
17
18
0)
1A!
1:
0p
0I
0;
1J
00
1q
#167000
0!
07
08
1)
#167500
1!
17
18
0)
1>!
0A!
0@!
0?!
0K
0q
0:
1p
1I
1;
0J
10
1L
0;
00
1K
1q
0L
#168000
0!
07
08
1)
#168500
1!
17
18
0)
1A!
1:
0p
1;
#169000
0!
07
08
1)
#169500
1!
17
18
0)
0A!
1@!
0:
1p
0I
0;
1I
1;
10
00
#170000
0!
07
08
1)
#170500
1!
17
18
0)
1A!
1:
0p
0I
0;
10
#171000
0!
07
08
1)
#171500
1!
17
18
0)
0A!
0@!
1?!
0:
1p
1I
1;
1J
00
0;
0J
10
0K
0q
1K
1q
1L
0L
#172000
0!
07
08
1)
#172500
1!
17
18
0)
1A!
1:
0p
1;
#173000
0!
07
08
1)
#173500
1!
17
18
0)
0A!
1@!
0:
1p
0I
0;
1I
1;
1J
00
0J
10
0K
0q
1K
1q
1L
0L
#174000
0!
07
08
1)
#174500
1!
17
18
0)
1A!
1:
0p
0I
0;
1J
00
0K
0q
1L
#175000
0!
07
08
1)
#175500
1!
17
18
0)
0>!
0A!
1=!
0@!
0?!
1r
1K
1q
0:
1p
1M
0L
1I
1;
0J
10
0M
1L
0;
0N
01
00
0q
1N
11
1O
0O
#176000
0!
07
08
1)
#176500
1!
17
18
0)
1A!
0r
1:
0p
1;
#177000
0!
07
08
1)
#177500
1!
17
18
0)
0A!
1@!
0:
1p
0I
0;
1I
1;
10
00
#178000
0!
07
08
1)
#178500
1!
17
18
0)
1A!
1:
0p
0I
0;
10
#179000
0!
07
08
1)
#179500
1!
17
18
0)
0A!
0@!
1?!
0:
1p
1I
1;
1J
00
0;
0J
10
1q
0q
#180000
0!
07
08
1)
#180500
1!
17
18
0)
1A!
1:
0p
1;
#181000
0!
07
08
1)
#181500
1!
17
18
0)
0A!
1@!
0:
1p
0I
0;
1I
1;
1J
00
0J
10
1q
0q
#182000
0!
07
08
1)
#182500
1!
17
18
0)
1A!
1:
0p
0I
0;
1J
00
1q
#183000
0!
07
08
1)
#183500
1!
17
18
0)
1>!
0A!
0@!
0?!
0K
0q
0:
1p
1I
1;
0J
10
1M
0L
0;
00
1K
1q
0N
01
0M
1L
1O
1N
11
0O
#184000
0!
07
08
1)
#184500
1!
17
18
0)
1A!
1:
0p
1;
#185000
0!
07
08
1)
#185500
1!
17
18
0)
0A!
1@!
0:
1p
0I
0;
1I
1;
10
00
#186000
0!
07
08
1)
#186500
1!
17
18
0)
1A!
1:
0p
0I
0;
10
#187000
0!
07
08
1)
